2022-06_Nikita
…
vacdf <- read.csv("NikitaData.csv")

vacdf <- clean_names(vacdf)

## Check variables

vacdf$frame <- as.factor(vacdf$frame)

vacdf$age_grp <- as.factor(vacdf$age_grp)

vacdf.long <- pivot_longer(vacdf, cols = 14:15, names_to = "vaccine", values_to = "willingness")

structure(vacdf.long)

## # A tibble: 374 x 22
##    frame      age age_grp gender postcode edu_level ethnicity religion religious
##    <fct>    <int> <fct>    <int>    <int>     <int>     <int>    <int>     <int>
##  1 Negative    19 1            1     2134         2         1        2         1
##  2 Negative    19 1            1     2134         2         1        2         1
##  3 Negative    20 1            1     6055         4         1        2         1
##  4 Negative    20 1            1     6055         4         1        2         1
##  5 Negative    21 1            1     3029         2         5        4         1
##  6 Negative    21 1            1     3029         2         5        4         1
##  7 Negative    22 1            1     2108         4         1        2         1
##  8 Negative    22 1            1     2108         4         1        2         1
##  9 Negative    23 1            1     4671         2         1        6         0
## 10 Negative    23 1            1     4671         2         1        6         0
## # ... with 364 more rows, and 13 more variables: marital_status <int>,
## #   children <int>, risk_perception <int>, will_cov <int>, vax <dbl>,
## #   va_xmistrust <dbl>, va_xfuture <dbl>, va_xcomm <dbl>, va_xnatural <dbl>,
## #   bis <dbl>, bas <dbl>, vaccine <chr>, willingness <int>
…
### Univariate plots for astra data

structure(astra)

## # A tibble: 187 x 7
##    willingness   age frame risk_perception   bis   bas   vax
##          <int> <int> <dbl>           <int> <dbl> <dbl> <dbl>
##  1           3    19     0               3  3.29  2.69  2.92
##  2           4    20     0               3  2.43  2.77  3.5 
##  3           1    21     0               2  2.86  2.46  2.92
##  4           5    22     0               1  2.86  3.62  1.5 
##  5           4    23     0               4  2.57  2.69  3.75
##  6           1    23     0               5  2.86  2.85  3.5 
##  7           3    23     0               3  2.29  2.08  3.33
##  8           4    27     0               3  2.57  3.23  2.92
##  9           2    31     0               2  2.86  3.08  1.92
## 10           5    31     0               5  3     3.15  3.58
## # ... with 177 more rows
…
